{
  "project_info": {
    "project_number": "86741313571",
    "firebase_url": "https://app-ban-hang-177804.firebaseio.com",
    "project_id": "app-ban-hang-177804",
    "storage_bucket": "app-ban-hang-177804.appspot.com"
  },
  "client": [
    {
      "client_info": {
        "mobilesdk_app_id": "1:86741313571:android:b1b52d15f3f3d516",
        "android_client_info": {
          "package_name": "com.appbanhang"
        }
      },
      "oauth_client": [
        {
          "client_id": "86741313571-p2n48gn2g7bddc1sqvupuacbu50gvuc7.apps.googleusercontent.com",
          "client_type": 3
        }
      ],
      "api_key": [
        {
          "current_key": "AIzaSyDkzPCnO315OTBwA4lp9eQBTm3beIlMSSE"
        }
      ],
      "services": {
        "analytics_service": {
          "status": 1
        },
        "appinvite_service": {
          "status": 1,
          "other_platform_oauth_client": []
        },
        "ads_service": {
          "status": 2
        }
      }
    }
  ],
  "configuration_version": "1"
}